<?xml version="1.0" encoding="utf-8"?>
<!-- Generator: Adobe Illustrator 16.0.0, SVG Export Plug-In . SVG Version: 6.00 Build 0)  -->
<!DOCTYPE svg PUBLIC "-//W3C//DTD SVG 1.1//EN" "http://www.w3.org/Graphics/SVG/1.1/DTD/svg11.dtd">
<svg version="1.1" id="Layer_1" xmlns="http://www.w3.org/2000/svg" xmlns:xlink="http://www.w3.org/1999/xlink" x="0px" y="0px"
	 width="512px" height="512px" viewBox="0 0 512 512" style="enable-background:new 0 0 512 512;" xml:space="preserve">
<g id="GUARDA_ROUPA">
	<polygon style="fill:#DBF9F2;" points="416.2,459.3 416.2,166.8 162.9,19.7 162.9,313 	"/>
	<polygon style="fill:#C7DBF2;" points="360.5,492.3 416.2,459.3 162.9,313 106.4,345.6 	"/>
	<polygon style="fill:#C7C9F2;" points="106.4,345.6 106.4,52.3 162.9,19.7 162.9,313 	"/>
	<polygon style="fill:#D1D1D1;" points="360.5,492.3 416.2,459.3 416.2,166.8 360.5,199 	"/>
	<polygon style="fill:#F7F7F7;" points="106.4,52.3 360.5,199 416.2,166.8 162.9,19.7 	"/>
	<polygon style="fill:#E5E5E5;" points="360.5,199 106.4,52.3 106.4,345.6 360.5,492.3 	"/>
	<polygon style="fill:#EFEFEF;" points="106.4,52.3 230.5,123.9 230.5,417.3 106.4,345.6 	"/>
	<polygon style="fill:#EFEFEF;" points="236.3,127.3 360.5,199 360.5,492.3 236.3,420.7 	"/>
	<polygon style="fill:#666666;" points="202.6,226 202.6,274.6 204.8,270.7 204.8,223.9 	"/>
	<rect x="252.2" y="244.2" style="fill:#939393;" width="3.6" height="48.6"/>
	<rect x="199" y="226" style="fill:#939393;" width="3.6" height="48.6"/>
</g>
</svg>
