<?xml version="1.0" encoding="utf-8"?>
<!-- Generator: Adobe Illustrator 16.0.0, SVG Export Plug-In . SVG Version: 6.00 Build 0)  -->
<!DOCTYPE svg PUBLIC "-//W3C//DTD SVG 1.1//EN" "http://www.w3.org/Graphics/SVG/1.1/DTD/svg11.dtd">
<svg version="1.1" id="Layer_1" xmlns="http://www.w3.org/2000/svg" xmlns:xlink="http://www.w3.org/1999/xlink" x="0px" y="0px"
	 width="512px" height="512px" viewBox="0 0 512 512" style="enable-background:new 0 0 512 512;" xml:space="preserve">
<g id="PENTEADEIRA">
	<polygon style="fill:#BFC9F2;" points="247.8,207.6 318.6,249.9 318.6,416.4 247.8,373.9 	"/>
	<polygon style="fill:#E2ECF2;" points="318.6,416.4 318.6,249.9 430.3,185.4 430.3,351.7 	"/>
	<polygon style="fill:#DBDEF2;" points="247.8,207.6 362,141.7 430.3,185.4 318.6,249.9 	"/>
	<polygon style="fill:#BFC9F2;" points="104.4,290.9 175.3,333.2 175.3,499.7 104.4,457.2 	"/>
	<polygon style="fill:#E2ECF2;" points="175.3,499.7 175.3,333.2 286.9,268.7 286.9,435 	"/>
	<polygon style="fill:#DBDEF2;" points="104.4,290.9 247.8,207.6 318.6,249.9 175.3,333.2 	"/>
	<polygon style="fill:#E2ECF2;" points="182.3,95.1 182.3,260.6 324.8,177.8 324.8,12.3 	"/>
	<polygon style="fill:#BED2D6;" points="174.4,93.6 175.3,255.6 182.3,260.6 182.3,95.1 	"/>
	<polygon style="fill:#BED2D6;" points="313.5,12.3 324.8,12.3 182.3,95.1 174.4,93.6 	"/>
	<polygon style="fill:#0EA9FF;" points="188.7,99 188.7,249.9 319.8,174.1 319.8,25.7 	"/>
	<polygon style="opacity:0.2;fill:#FFFFFF;" points="319.8,39 188.7,156.5 188.7,193.9 319.8,73.3 	"/>
	<polygon style="opacity:0.2;fill:#FFFFFF;" points="188.7,224.2 319.8,108.8 319.8,117.3 188.7,232.2 	"/>
	<g id="GAVETA">
		<polygon style="fill:#D9F2FF;" points="177.6,334.7 177.6,413.5 285.2,350.9 285.2,273.3 		"/>
		<polygon style="fill:#7AA4BD;" points="205.5,361.7 261.7,330.4 261.7,332.3 205.6,363.9 		"/>
		<polygon style="fill:#9DD2F2;" points="205.4,360.4 261.7,328.5 261.7,331.2 205.6,362.6 		"/>
		<line style="fill:none;stroke:#FFFFFF;stroke-width:0.1;stroke-miterlimit:10;" x1="183.1" y1="410.2" x2="281" y2="353.4"/>
	</g>
	<g id="GAVETA_1_">
		<polygon style="fill:#E0F5FF;" points="178.2,416 178.2,494.8 285.9,432.3 285.9,354.6 		"/>
		<polygon style="fill:#7AA4BD;" points="206.2,443.1 262.4,411.8 262.4,413.6 206.3,445.3 		"/>
		<polygon style="fill:#9DD2F2;" points="206.1,441.8 262.4,409.9 262.4,412.6 206.2,444 		"/>
		<line style="fill:none;stroke:#FFFFFF;stroke-width:0.1;stroke-miterlimit:10;" x1="183.8" y1="491.6" x2="281.7" y2="434.7"/>
	</g>
	<g id="GAVETA_2_">
		<polygon style="fill:#D9F2FF;" points="320.7,251.9 320.7,330.7 428.3,268.1 428.3,190.5 		"/>
		<polygon style="fill:#7AA4BD;" points="348.6,278.9 404.8,247.7 404.8,249.5 348.7,281.2 		"/>
		<polygon style="fill:#9DD2F2;" points="348.5,277.6 404.8,245.7 404.8,248.4 348.6,279.9 		"/>
		<line style="fill:none;stroke:#FFFFFF;stroke-width:0.1;stroke-miterlimit:10;" x1="326.2" y1="327.4" x2="424.1" y2="270.6"/>
	</g>
	<g id="GAVETA_3_">
		<polygon style="fill:#D9F2FF;" points="320.7,333 320.7,411.8 428.3,349.2 428.3,271.6 		"/>
		<polygon style="fill:#7AA4BD;" points="348.6,360 404.8,328.8 404.8,330.6 348.7,362.2 		"/>
		<polygon style="fill:#9DD2F2;" points="348.5,358.7 404.8,326.8 404.8,329.5 348.6,360.9 		"/>
		<line style="fill:none;stroke:#FFFFFF;stroke-width:0.1;stroke-miterlimit:10;" x1="326.2" y1="408.5" x2="424.1" y2="351.7"/>
	</g>
</g>
</svg>
