<?xml version="1.0" encoding="utf-8"?>
<!-- Generator: Adobe Illustrator 16.0.0, SVG Export Plug-In . SVG Version: 6.00 Build 0)  -->
<!DOCTYPE svg PUBLIC "-//W3C//DTD SVG 1.1//EN" "http://www.w3.org/Graphics/SVG/1.1/DTD/svg11.dtd">
<svg version="1.1" id="Layer_1" xmlns="http://www.w3.org/2000/svg" xmlns:xlink="http://www.w3.org/1999/xlink" x="0px" y="0px"
	 width="98.076px" height="69.791px" viewBox="0 0 98.076 69.791" enable-background="new 0 0 98.076 69.791" xml:space="preserve">
<g>
	<g enable-background="new    ">
		<g>
			<polygon fill="#1E2425" points="91.072,40.661 88.044,38.902 88.013,18.859 91.041,20.618 			"/>
		</g>
		<g>
			<polygon fill="#384347" points="91.041,20.618 88.013,18.859 90.789,17.258 93.814,19.017 			"/>
		</g>
		<g>
			<polygon fill="#384347" points="93.814,19.017 93.845,39.061 91.072,40.661 91.041,20.618 			"/>
		</g>
	</g>
	<g enable-background="new    ">
		<g>
			<polygon fill="#1E2425" points="40.617,69.791 37.591,68.032 37.561,47.988 40.587,49.747 			"/>
		</g>
		<g>
			<polygon fill="#384347" points="40.587,49.747 37.561,47.988 40.334,46.388 43.36,48.146 			"/>
		</g>
		<g>
			<polygon fill="#384347" points="43.36,48.146 43.392,68.189 40.617,69.791 40.587,49.747 			"/>
		</g>
	</g>
	<g enable-background="new    ">
		<g>
			<polygon fill="#1E2425" points="6.766,50.965 3.739,49.206 3.708,36.266 6.734,38.024 			"/>
		</g>
		<g>
			<polygon fill="#384347" points="6.734,38.024 3.708,36.266 6.481,34.664 9.508,36.423 			"/>
		</g>
		<g>
			<polygon fill="#384347" points="9.508,36.423 9.539,49.363 6.766,50.965 6.734,38.024 			"/>
		</g>
	</g>
	<g>
		<g enable-background="new    ">
			<g>
				<polygon fill="#062E47" points="35.317,59.939 0.01,39.421 0,36.233 35.309,56.752 				"/>
			</g>
			<g>
				<polygon fill="#0E5E90" points="35.309,56.752 0,36.233 62.759,0 98.068,20.519 				"/>
			</g>
			<g>
				<polygon fill="#06344E" points="98.068,20.519 98.076,23.705 35.317,59.939 35.309,56.752 				"/>
			</g>
		</g>
	</g>
</g>
</svg>
